{
    "disruptions": [
        {
            "network": "network_warehouse2.json",
            "time": 155
        },
        {
            "network": "network_warehouse3.json",
            "time": 225
        },
        {
            "network": "network_warehouse1_delayed.json",
            "time":295 
        }
    ],
    "network": "network_warehouse1.json",
    "shipments": [
        {
            "arrival_node": "PEV",
            "departure_node": "PEV",
            "destination_node": "Berth",
            "shipment_file": "shipment.json",
            "shipment_uuid": "3484cddc-f81b-4b99-b7ad-ee9989d0933a",
            "shipper": "Container Yard",
            "time": 20.0
        }
    ],
    "start_time": "2018-05-24 00:00:00-04:00",
    "workday_end": "23:59",
    "workday_start": "00:00"
}
