{
    "commodities": [
        {
            "EAT": 100,
            "LDT": 550,
            "cargo_categories": [
                "Perishable"
            ],
            "delay_cost": null,
            "destination": "S FL Groceries",
            "group_uuid": "eeb64b97-83b9-4bb5-ac45-b90f9d87ef47",
            "uuid": "df84616c-73f8-4cb8-89c5-46163605e7a7",
            "name": "bananas   1-0",
            "source": "Berth",
            "transportation_methods": [
                "Transloading",
                "Ship",
                "Roadway",
                "Sea"
            ]
        }
    ]
}