{
    "directed": true,
    "graph": {},
    "links": [
        {
            "capacity": 1,
            "cargo_categories": [
                "Perishable",
                "Non-hazardous"
            ],
            "cost": 10,
            "extended_time_period": 120,
            "extended_time_rate": 2,
            "key": 0,
            "latitude": 26.111183,
            "longitude": -80.165652,
            "name": "Seaway Inbound",
            "nbr_containers": 0,
            "source": "PEV",
            "target": "Berth",
            "transportation_methods": [
                "Sea"
            ],
            "travel_time": 10,
            "type": "Primary"
        },
        {
            "capacity": 1,
            "cargo_categories": [
                "Perishable",
                "Non-hazardous"
            ],
            "cost": 10,
            "extended_time_period": 120,
            "extended_time_rate": 2,
            "key": 0,
            "latitude": 26.111183,
            "longitude": -80.165652,
            "name": "Seaway Outbound",
            "nbr_containers": 0,
            "source": "Berth",
            "target": "PEV",
            "transportation_methods": [
                "Sea"
            ],
            "travel_time": 30,
            "type": "Primary"
        },
        {
            "capacity": 2,
            "cargo_categories": [
                "Perishable",
                "Non-hazardous"
            ],
            "cost": 1,
            "extended_time_period": 120,
            "extended_time_rate": 2,
            "key": 0,
            "latitude": 26.111183,
            "longitude": -80.165652,
            "name": "Gantry Crane Offload",
            "nbr_containers": 0,
            "source": "Berth",
            "target": "Loading Dock",
            "transportation_methods": [
                "Transloading"
            ],
            "travel_time": 10,
            "type": "Primary"
        },
        {
            "capacity": 2,
            "cargo_categories": [
                "Perishable",
                "Non-hazardous"
            ],
            "cost": 1,
            "extended_time_period": 120,
            "extended_time_rate": 2,
            "key": 0,
            "latitude": 26.111183,
            "longitude": -80.165652,
            "name": "Gantry Crane Onload",
            "nbr_containers": 0,
            "source": "Loading Dock",
            "target": "Berth",
            "transportation_methods": [
                "Transloading"
            ],
            "travel_time": 10,
            "type": "Primary"
        },
        {
            "capacity": 20,
            "cargo_categories": [
                "Perishable",
                "Non-hazardous"
            ],
            "cost": 1,
            "extended_time_period": 120,
            "extended_time_rate": 2,
            "key": 0,
            "latitude": 26.111183,
            "longitude": -80.165652,
            "name": "Berth Road Out",
            "nbr_containers": 0,
            "source": "Loading Dock",
            "target": "Container Yard",
            "transportation_methods": [
                "Roadway"
            ],
            "travel_time": 10,
            "type": "Primary"
        },
        {
            "capacity": 20,
            "cargo_categories": [
                "Perishable",
                "Non-hazardous"
            ],
            "cost": 1,
            "extended_time_period": 120,
            "extended_time_rate": 2,
            "key": 0,
            "latitude": 26.111183,
            "longitude": -80.165652,
            "name": "Berth Road In",
            "nbr_containers": 0,
            "source": "Container Yard",
            "target": "Loading Dock",
            "transportation_methods": [
                "Roadway"
            ],
            "travel_time": 10,
            "type": "Primary"
        },
        {
            "capacity": 7,
            "cargo_categories": [
                "Perishable",
                "Non-hazardous"
            ],
            "cost": 1,
            "extended_time_period": 120,
            "extended_time_rate": 2,
            "key": 0,
            "latitude": 26.111183,
            "longitude": -80.165652,
            "name": "Local Road 1 Out",
            "nbr_containers": 0,
            "source": "Container Yard",
            "target": "Warehouse 1",
            "transportation_methods": [
                "Roadway"
            ],
            "travel_time": 10,
            "type": "Primary"
        },
        {
            "capacity": 7,
            "cargo_categories": [
                "Perishable",
                "Non-hazardous"
            ],
            "cost": 1,
            "extended_time_period": 120,
            "extended_time_rate": 2,
            "key": 0,
            "latitude": 26.111183,
            "longitude": -80.165652,
            "name": "Local Road 1 In",
            "nbr_containers": 0,
            "source": "Warehouse 1",
            "target": "Container Yard",
            "transportation_methods": [
                "Roadway"
            ],
            "travel_time": 10,
            "type": "Primary"
        },
        {
            "capacity": 7,
            "cargo_categories": [
                "Perishable",
                "Non-hazardous"
            ],
            "cost": 1,
            "extended_time_period": 120,
            "extended_time_rate": 2,
            "key": 0,
            "latitude": 26.111183,
            "longitude": -80.165652,
            "name": "Local Road 2 Out",
            "nbr_containers": 0,
            "source": "Container Yard",
            "target": "Warehouse 2",
            "transportation_methods": [
                "Roadway"
            ],
            "travel_time": 10,
            "type": "Primary"
        },
        {
            "capacity": 7,
            "cargo_categories": [
                "Perishable",
                "Non-hazardous"
            ],
            "cost": 1,
            "extended_time_period": 120,
            "extended_time_rate": 2,
            "key": 0,
            "latitude": 26.111183,
            "longitude": -80.165652,
            "name": "Local Road 2 In",
            "nbr_containers": 0,
            "source": "Warehouse 2",
            "target": "Container Yard",
            "transportation_methods": [
                "Roadway"
            ],
            "travel_time": 10,
            "type": "Primary"
        },
        {
            "capacity": 7,
            "cargo_categories": [
                "Perishable",
                "Non-hazardous"
            ],
            "cost": 2,
            "extended_time_period": 120,
            "extended_time_rate": 2,
            "key": 0,
            "latitude": 26.111183,
            "longitude": -80.165652,
            "name": "Local Road 3 Out",
            "nbr_containers": 0,
            "source": "Container Yard",
            "target": "Warehouse 3",
            "transportation_methods": [
                "Roadway"
            ],
            "travel_time": 10,
            "type": "Primary"
        },
        {
            "capacity": 7,
            "cargo_categories": [
                "Perishable",
                "Non-hazardous"
            ],
            "cost": 1,
            "extended_time_period": 120,
            "extended_time_rate": 2,
            "key": 0,
            "latitude": 26.111183,
            "longitude": -80.165652,
            "name": "Local Road 3 In",
            "nbr_containers": 0,
            "source": "Warehouse 3",
            "target": "Container Yard",
            "transportation_methods": [
                "Roadway"
            ],
            "travel_time": 10,
            "type": "Primary"
        },
        {
            "capacity": 9,
            "cargo_categories": [
                "Perishable",
                "Non-hazardous"
            ],
            "cost": 1,
            "extended_time_period": 120,
            "extended_time_rate": 2,
            "key": 0,
            "latitude": 26.111183,
            "longitude": -80.165652,
            "name": "Port Road 1 In",
            "nbr_containers": 0,
            "source": "NHTSA Checkpoint",
            "target": "Warehouse 1",
            "transportation_methods": [
                "Roadway"
            ],
            "travel_time": 10,
            "type": "Primary"
        },
        {
            "capacity": 9,
            "cargo_categories": [
                "Perishable",
                "Non-hazardous"
            ],
            "cost": 1,
            "extended_time_period": 120,
            "extended_time_rate": 2,
            "key": 0,
            "latitude": 26.111183,
            "longitude": -80.165652,
            "name": "Port Road 1 Out",
            "nbr_containers": 0,
            "source": "Warehouse 1",
            "target": "NHTSA Checkpoint",
            "transportation_methods": [
                "Roadway"
            ],
            "travel_time": 10,
            "type": "Delayed"
        },
        {
            "capacity": 9,
            "cargo_categories": [
                "Perishable",
                "Non-hazardous"
            ],
            "cost": 1,
            "extended_time_period": 120,
            "extended_time_rate": 2,
            "key": 0,
            "latitude": 26.111183,
            "longitude": -80.165652,
            "name": "Port Road 2 In",
            "nbr_containers": 0,
            "source": "NHTSA Checkpoint",
            "target": "Warehouse 2",
            "transportation_methods": [
                "Roadway"
            ],
            "travel_time": 10,
            "type": "Primary"
        },
        {
            "capacity": 9,
            "cargo_categories": [
                "Perishable",
                "Non-hazardous"
            ],
            "cost": 2,
            "extended_time_period": 120,
            "extended_time_rate": 2,
            "key": 0,
            "latitude": 26.111183,
            "longitude": -80.165652,
            "name": "Port Road 2 Out",
            "nbr_containers": 0,
            "source": "Warehouse 2",
            "target": "NHTSA Checkpoint",
            "transportation_methods": [
                "Roadway"
            ],
            "travel_time": 10,
            "type": "Delayed"
        },
        {
            "capacity": 9,
            "cargo_categories": [
                "Perishable",
                "Non-hazardous"
            ],
            "cost": 1,
            "extended_time_period": 120,
            "extended_time_rate": 2,
            "key": 0,
            "latitude": 26.111183,
            "longitude": -80.165652,
            "name": "Port Road 3 In",
            "nbr_containers": 0,
            "source": "NHTSA Checkpoint",
            "target": "Warehouse 3",
            "transportation_methods": [
                "Roadway"
            ],
            "travel_time": 10,
            "type": "Primary"
        },
        {
            "capacity": 9,
            "cargo_categories": [
                "Perishable",
                "Non-hazardous"
            ],
            "cost": 11,
            "extended_time_period": 120,
            "extended_time_rate": 2,
            "key": 0,
            "latitude": 26.111183,
            "longitude": -80.165652,
            "name": "Port Road 3 Out",
            "nbr_containers": 0,
            "source": "Warehouse 3",
            "target": "NHTSA Checkpoint",
            "transportation_methods": [
                "Roadway"
            ],
            "travel_time": 10,
            "type": "Delayed"
        },
        {
            "capacity": 20,
            "cargo_categories": [
                "Perishable",
                "Non-hazardous"
            ],
            "cost": 1,
            "extended_time_period": 120,
            "extended_time_rate": 2,
            "key": 0,
            "latitude": 26.111183,
            "longitude": -80.165652,
            "name": "External Road 1",
            "nbr_containers": 0,
            "source": "NHTSA Checkpoint",
            "target": "S FL Groceries",
            "transportation_methods": [
                "Roadway"
            ],
            "travel_time": 10,
            "type": "Primary"
        }
    ],
    "multigraph": true,
    "nodes": [
        {
            "capacity": 10,
            "cargo_categories": [
                "Non-hazardous",
                "Hazardous",
                "Perishable"
            ],
            "cost": 2,
            "extended_time_period": 1200,
            "extended_time_rate": 2,
            "holding_time": 20,
            "id": "PEV",
            "latitude": 26.069759,
            "longitude": -80.115722,
            "nbr_containers": 0,
            "service_time": 5,
            "storage": 1000,
            "transportation_methods": [
                "Sea"
            ]
        },
        {
            "capacity": 1,
            "cargo_categories": [
                "Non-hazardous",
                "Hazardous",
                "Perishable"
            ],
            "cost": 2,
            "extended_time_period": 1200,
            "extended_time_rate": 2,
            "holding_time": 20,
            "id": "Berth",
            "latitude": 26.069759,
            "longitude": -80.115722,
            "nbr_containers": 0,
            "service_time": 5,
            "storage": 1000,
            "transportation_methods": [
                "Sea",
                "Transloading"
            ]
        },
        {
            "capacity": 2,
            "cargo_categories": [
                "Non-hazardous",
                "Hazardous",
                "Perishable"
            ],
            "cost": 1,
            "extended_time_period": 6,
            "extended_time_rate": 2,
            "holding_time": 20,
            "id": "Loading Dock",
            "latitude": 26.069527,
            "longitude": -80.11613,
            "nbr_containers": 0,
            "service_time": 5,
            "storage": 2,
            "transportation_methods": [
                "Transloading"
            ]
        },
        {
            "capacity": 20,
            "cargo_categories": [
                "Non-hazardous",
                "Hazardous",
                "Perishable"
            ],
            "cost": 5,
            "extended_time_period": 3600,
            "extended_time_rate": 20,
            "holding_time": 20,
            "id": "Container Yard",
            "latitude": 26.066308,
            "longitude": -80.120636,
            "nbr_containers": 0,
            "service_time": 5,
            "storage": 10000,
            "transportation_methods": [
                "Roadway",
                "Transloading"
            ]
        },
        {
            "capacity": 10,
            "cargo_categories": [
                "Non-hazardous",
                "Hazardous",
                "Perishable"
            ],
            "cost": 2,
            "extended_time_period": 7200,
            "extended_time_rate": 2,
            "holding_time": 20,
            "id": "Warehouse 1",
            "latitude": 26.076502,
            "longitude": -80.125483,
            "nbr_containers": 0,
            "service_time": 5,
            "storage": 5000,
            "transportation_methods": [
                "Roadway",
                "Transloading"
            ]
        },
        {
            "capacity": 10,
            "cargo_categories": [
                "Non-hazardous",
                "Hazardous",
                "Perishable"
            ],
            "cost": 2,
            "extended_time_period": 7200,
            "extended_time_rate": 2,
            "holding_time": 20,
            "id": "Warehouse 2",
            "latitude": 26.076502,
            "longitude": -80.125483,
            "nbr_containers": 0,
            "service_time": 5,
            "storage": 5000,
            "transportation_methods": [
                "Roadway",
                "Transloading"
            ]
        },
        {
            "capacity": 10,
            "cargo_categories": [
                "Non-hazardous",
                "Hazardous",
                "Perishable"
            ],
            "cost": 2,
            "extended_time_period": 7200,
            "extended_time_rate": 2,
            "holding_time": 20,
            "id": "Warehouse 3",
            "latitude": 26.076502,
            "longitude": -80.125483,
            "nbr_containers": 0,
            "service_time": 5,
            "storage": 5000,
            "transportation_methods": [
                "Roadway",
                "Transloading"
            ]
        },
        {
            "capacity": 10,
            "cargo_categories": [
                "Non-hazardous",
                "Hazardous",
                "Perishable"
            ],
            "cost": 2,
            "extended_time_period": 7200,
            "extended_time_rate": 2,
            "holding_time": 20,
            "id": "NHTSA Checkpoint",
            "latitude": 26.076502,
            "longitude": -80.125483,
            "nbr_containers": 0,
            "service_time": 5,
            "storage": 5000,
            "transportation_methods": [
                "Roadway",
                "Transloading"
            ]
        },
        {
            "capacity": 2,
            "cargo_categories": [
                "Perishable"
            ],
            "cost": 2,
            "extended_time_period": 7200,
            "extended_time_rate": 0.5,
            "holding_time": 20,
            "id": "S FL Groceries",
            "latitude": 26.088753,
            "longitude": -80.145825,
            "nbr_containers": 0,
            "service_time": 5,
            "storage": 500,
            "transportation_methods": [
                "Roadway",
                "Transloading"
            ]
        }
    ]
}