{
    "directed": true,
    "graph": {},
    "multigraph": true,
    "nodes": [
        {
            "id": "LD1",
            "onf:commodity_bundle_demand": 5,
            "onf:commodity_bundle_service_time": 0
        },
        {
            "id": "DR1",
            "onf:commodity_bundle_demand": 0,
            "onf:commodity_bundle_service_time": 0
        },
        {
            "id": "Rail",
            "onf:commodity_bundle_demand": -5,
            "onf:commodity_bundle_service_time": 0
        }
    ],
    "links": [
        {
            "key": 0,
            "name": "Road 1",
            "onf:capacity": 10,
            "onf:commodity_bundle_capacity": 10,
            "onf:commodity_bundle_cost": 1,
            "onf:fixed_cost": 1.0,
            "onf:source_id": "LD1",
            "onf:target_id": "DR1",
            "onf:travel_time": 0.5,
            "source": "LD1",
            "target": "DR1"
        },
        {
            "key": 0,
            "name": "Road 3",
            "onf:capacity": 15,
            "onf:commodity_bundle_capacity": 15,
            "onf:commodity_bundle_cost": 1,
            "onf:fixed_cost": 1.0,
            "onf:source_id": "DR1",
            "onf:target_id": "Rail",
            "onf:travel_time": 6,
            "source": "DR1",
            "target": "Rail"
        }
    ]
}